<?xml version="1.0" encoding="utf-8"?>
<!-- Generator: Adobe Illustrator 20.0.0, SVG Export Plug-In . SVG Version: 6.00 Build 0)  -->
<svg version="1.1" id="Capa_1" xmlns="http://www.w3.org/2000/svg" xmlns:xlink="http://www.w3.org/1999/xlink" x="0px" y="0px"
	 viewBox="0 0 15 13.8" style="enable-background:new 0 0 15 13.8;" xml:space="preserve">
<style type="text/css">
	.st0{fill:#C9C9C9;}
</style>
<g>
	<path class="st0" d="M15,4c0,0-0.3-2.7-0.6-3.1L14.2,0l-0.6,0.8c0,0-2.5-0.8-3.9,2.8c0,0-0.1,0.1-0.2,0.2C9.4,3.8,9.2,3.8,9.1,3.7
		C9.1,3.6,9,3.3,9.1,3.2c0.1-0.2,0-1,0-1c0.5,0,0.7-0.5,0.7-0.5L10,1.7C10.1,1.5,10,1,10,0.9C9.5,0,8.6,0.5,8.6,0.5
		C8,0.9,8.5,1.2,8.5,1.2c-0.3,0-1.1,0.2-1.4,0.3C6.4,1.7,5.3,2.9,5.3,2.9C4.7,3.5,5,4.1,5,4.1c0.2,0.4,1.7,1.2,1.7,1.2
		c0.1,0.1,0.1,0.1,0.1,0.2c-0.3,0-0.7,0-1.1-0.1c-0.8-0.3-1.5-0.9-3.2,1c0,0-3.1,0-2.4,3.9c0,0,1.2-0.6,1.5-2.1c0,0,0.2-1.2,0.8-1.1
		c0,0-0.4,1.9,2,2.9c0,0,0,0.6-0.3,0.9c0,0-0.5,0.7,0.9,1.2c0,0,1.4,0.6,1.7,1.1c0,0,0.3,0.2,0.7,0.1c0,0-0.2,0.5,0.5,0.5
		c0,0,0.6,0.1,0.6-0.2c0,0-0.2-0.5-0.6-0.5c0,0-0.5-0.7-1.1-0.7c0,0-1.1-0.1-1-1.1c0,0,0.7-1.2,0.5-2.2c0,0,3.6,0.8,4.7-0.1
		c0,0,0.1,0.4,0.4,0.3l0,0.3c0,0-0.2,0-0.3,0.2c0,0-0.1,0.2,0.3,0.1v0.3c0,0,0,0.3,0.6-0.1c0,0,1.1-0.1,1.4-0.8c0,0,1.5-0.6,1.1-1.4
		c0,0-0.3-0.7-1-0.5l-0.8,0c0,0,0.4-0.8-0.1-1.4c0,0,0.5-1.9,0.4-3c0,0,0.4,0.9,0.8,1.1c0,0-0.1,0.7,0.8,0.6C14.6,4.8,15.1,4.8,15,4
		z M8.4,3.1c0,0,0.1,0.6,0.2,0.7c0,0-0.3,0-0.4-0.1c0-0.1-0.1-0.5-0.1-0.5L8.4,3.1z M8.3,5.1C8,4.6,7.2,4,7.2,4
		C6.8,3.6,7.5,3.5,7.5,3.5l0.2,0.6c0.3,0.5,1.5,0.3,1.5,0.3l0,0C8.9,4.6,8.6,4.9,8.3,5.1z M13.2,8.6C13,9,12.1,9.2,12.1,9.2
		C12.3,8.9,13.2,8.6,13.2,8.6z"/>
</g>
</svg>
