<?xml version="1.0" encoding="utf-8"?>
<!-- Generator: Adobe Illustrator 20.0.0, SVG Export Plug-In . SVG Version: 6.00 Build 0)  -->
<svg version="1.1" id="Capa_1" xmlns="http://www.w3.org/2000/svg" xmlns:xlink="http://www.w3.org/1999/xlink" x="0px" y="0px"
	 viewBox="0 0 512 512" style="enable-background:new 0 0 512 512;" xml:space="preserve">
<style type="text/css">
	.st0{fill:#FFFFFF;}
</style>
<g>
	<g>
		<path class="st0" d="M486.4,64H25.6C10.2,64,0,74.2,0,89.6v332.8C0,437.8,10.2,448,25.6,448h460.8c15.4,0,25.6-10.2,25.6-25.6
			V89.6C512,74.2,501.8,64,486.4,64z M153.6,140.8c28.2,0,51.2,23,51.2,51.2s-23,51.2-51.2,51.2s-51.2-23-51.2-51.2
			S125.4,140.8,153.6,140.8z M256,371.2H51.2V320c0-69.1,204.8-69.1,204.8,0V371.2z M435.2,396.8H332.8c-15.4,0-25.6-10.2-25.6-25.6
			c0-15.4,10.2-25.6,25.6-25.6h102.4c15.4,0,25.6,10.2,25.6,25.6S450.6,396.8,435.2,396.8z M435.2,294.4H281.6
			c-15.4,0-25.6-10.2-25.6-25.6s10.2-25.6,25.6-25.6h153.6c15.4,0,25.6,10.2,25.6,25.6C460.8,284.2,450.6,294.4,435.2,294.4z
			 M435.2,192H281.6c-15.4,0-25.6-10.2-25.6-25.6s10.2-25.6,25.6-25.6h153.6c15.4,0,25.6,10.2,25.6,25.6
			C460.8,181.8,450.6,192,435.2,192z"/>
	</g>
</g>
</svg>
