<?xml version="1.0" encoding="utf-8"?>
<!-- Generator: Adobe Illustrator 20.0.0, SVG Export Plug-In . SVG Version: 6.00 Build 0)  -->
<svg version="1.1" id="Layer_1" xmlns="http://www.w3.org/2000/svg" xmlns:xlink="http://www.w3.org/1999/xlink" x="0px" y="0px"
	 viewBox="0 0 15 15" style="enable-background:new 0 0 15 15;" xml:space="preserve">
<style type="text/css">
	.st0{fill:#C9C9C9;}
</style>
<title>bandy-ball</title>
<path class="st0" d="M6.4,5.3l-0.2,0C6.1,5.3,6,5.4,6,5.5c0,0.1,0.1,0.3,0.2,0.3l0.2,0h0c0.1,0,0.3-0.1,0.3-0.2S6.6,5.3,6.4,5.3
	L6.4,5.3z"/>
<path class="st0" d="M7.2,5.3H7.1c-0.1,0-0.2,0.1-0.2,0.2s0.1,0.2,0.2,0.2l0.2,0l0,0c0.1,0,0.2-0.1,0.2-0.2S7.4,5.3,7.2,5.3z"/>
<path class="st0" d="M5.6,5.2l-0.2,0c-0.1,0-0.3,0.1-0.3,0.2s0.1,0.3,0.2,0.3l0.2,0h0c0.1,0,0.3-0.1,0.3-0.2
	C5.8,5.4,5.7,5.3,5.6,5.2L5.6,5.2z"/>
<path class="st0" d="M8.1,5.3l-0.2,0c-0.1,0-0.2,0.1-0.2,0.3c0,0.1,0.1,0.3,0.2,0.3l0,0l0.2,0c0.1,0,0.2-0.1,0.2-0.3
	C8.3,5.4,8.2,5.3,8.1,5.3z"/>
<path class="st0" d="M2.9,5.4l0.2,0h0c0.1,0,0.3-0.1,0.3-0.2c0-0.1-0.1-0.3-0.2-0.3L3,4.9c-0.1,0-0.3,0.1-0.3,0.2
	C2.7,5.2,2.8,5.3,2.9,5.4L2.9,5.4z"/>
<path class="st0" d="M4.8,5.2l-0.2,0c-0.1,0-0.3,0.1-0.3,0.2c0,0.1,0.1,0.3,0.2,0.3l0,0l0.2,0h0C4.9,5.7,5,5.6,5,5.4
	C5,5.3,4.9,5.2,4.8,5.2L4.8,5.2z"/>
<path class="st0" d="M3.7,5.5l0.2,0h0c0.1,0,0.3-0.1,0.3-0.2C4.2,5.2,4.1,5.1,4,5l0,0L3.8,5C3.7,5,3.5,5.1,3.5,5.2
	C3.5,5.4,3.6,5.5,3.7,5.5L3.7,5.5z"/>
<path class="st0" d="M2.1,5.2l0.2,0c0.1,0,0.3-0.1,0.3-0.2c0-0.1-0.1-0.3-0.2-0.3l-0.2,0c-0.1,0-0.3,0.1-0.3,0.2
	C1.9,5,2,5.2,2.1,5.2L2.1,5.2z"/>
<path class="st0" d="M8.9,5.3l-0.2,0c-0.1,0-0.2,0.1-0.2,0.3c0,0.1,0.1,0.2,0.3,0.2h0l0.2,0c0.1,0,0.2-0.1,0.2-0.3c0,0,0,0,0,0
	C9.1,5.4,9,5.3,8.9,5.3z"/>
<path class="st0" d="M12,5.2C12,5.2,12,5.2,12,5.2l0.2-0.1c0.1,0,0.2-0.2,0.2-0.3s-0.2-0.2-0.3-0.2l-0.2,0c-0.1,0-0.2,0.2-0.2,0.3
	C11.8,5.1,11.9,5.2,12,5.2L12,5.2z"/>
<path class="st0" d="M12.8,4.9C12.8,4.9,12.8,4.9,12.8,4.9L13,4.9c0.1,0,0.2-0.2,0.1-0.3c0-0.1-0.2-0.2-0.3-0.1l-0.2,0.1
	c-0.1,0-0.2,0.2-0.1,0.3C12.6,4.9,12.7,4.9,12.8,4.9L12.8,4.9z"/>
<path class="st0" d="M11.2,5.4C11.2,5.4,11.2,5.4,11.2,5.4l0.2,0c0.1,0,0.2-0.2,0.2-0.3c0-0.1-0.2-0.2-0.3-0.2l-0.2,0
	c-0.1,0-0.2,0.1-0.2,0.3C10.9,5.3,11,5.4,11.2,5.4L11.2,5.4L11.2,5.4z"/>
<path class="st0" d="M10.5,5.1l-0.2,0c-0.1,0-0.2,0.1-0.2,0.3s0.1,0.2,0.3,0.2h0l0.2,0c0.1,0,0.2-0.2,0.2-0.3
	C10.8,5.1,10.6,5,10.5,5.1L10.5,5.1z"/>
<path class="st0" d="M9.7,5.2l-0.2,0c-0.1,0-0.2,0.1-0.2,0.3c0,0.1,0.1,0.2,0.3,0.2h0l0.2,0c0.1,0,0.2-0.1,0.2-0.3
	C9.9,5.3,9.8,5.2,9.7,5.2L9.7,5.2z"/>
<path class="st0" d="M7.3,8c0,0.1,0.1,0.3,0.2,0.3l0,0l0.2,0c0.1,0,0.2-0.1,0.2-0.3c0-0.1-0.1-0.2-0.3-0.2l-0.2,0
	C7.4,7.8,7.3,7.9,7.3,8z"/>
<path class="st0" d="M5.6,7.9c0,0.1,0.1,0.3,0.2,0.3c0,0,0,0,0,0l0.2,0h0c0.1,0,0.3-0.1,0.3-0.2c0-0.1-0.1-0.3-0.2-0.3l-0.2,0
	C5.7,7.7,5.6,7.8,5.6,7.9C5.6,7.9,5.6,7.9,5.6,7.9z"/>
<path class="st0" d="M6.4,8c0,0.1,0.1,0.2,0.2,0.2c0,0,0,0,0,0l0.2,0l0,0c0.1,0,0.2-0.1,0.2-0.2S7,7.8,6.8,7.8H6.7
	C6.6,7.7,6.4,7.9,6.4,8z"/>
<path class="st0" d="M4,7.7C3.9,7.9,4,8,4.2,8c0,0,0,0,0,0l0.2,0h0c0.1,0,0.3-0.1,0.3-0.2c0-0.1-0.1-0.3-0.2-0.3l0,0l-0.2,0
	C4.1,7.5,4,7.6,4,7.7z"/>
<path class="st0" d="M3.2,7.6c0,0.1,0.1,0.3,0.2,0.3l0.2,0h0c0.1,0,0.3-0.1,0.3-0.2c0-0.1-0.1-0.3-0.2-0.3l0,0l-0.2,0
	C3.3,7.3,3.2,7.4,3.2,7.6z"/>
<path class="st0" d="M2.2,7.4c0-0.1,0-0.3-0.2-0.3c0,0,0,0,0,0L1.8,7C1.7,7,1.6,7,1.5,7.2c0,0.1,0,0.3,0.2,0.3c0,0,0,0,0,0l0.2,0
	C2,7.6,2.1,7.5,2.2,7.4C2.2,7.4,2.2,7.4,2.2,7.4L2.2,7.4z"/>
<path class="st0" d="M3,7.5c0-0.1-0.1-0.3-0.2-0.3c0,0,0,0,0,0l-0.2,0c-0.1,0-0.3,0.1-0.3,0.2c0,0.1,0.1,0.2,0.2,0.3l0.2,0
	c0,0,0,0,0.1,0C2.9,7.7,3,7.7,3,7.5z"/>
<path class="st0" d="M4.8,7.8C4.8,8,4.9,8.1,5,8.1l0.2,0h0c0.1,0,0.3-0.1,0.3-0.2c0-0.1-0.1-0.3-0.2-0.3l0,0l-0.2,0
	C4.9,7.6,4.8,7.7,4.8,7.8z"/>
<path class="st0" d="M12.8,7.2c0-0.1-0.2-0.2-0.3-0.2l-0.2,0c-0.1,0-0.2,0.2-0.2,0.3c0,0.1,0.2,0.2,0.3,0.2l0.2,0
	C12.8,7.5,12.8,7.4,12.8,7.2C12.8,7.2,12.8,7.2,12.8,7.2z"/>
<path class="st0" d="M13.3,6.8l-0.2,0.1C13,6.9,12.9,7,13,7.2c0,0.1,0.2,0.2,0.3,0.2l0.2-0.1c0.1,0,0.2-0.2,0.2-0.3
	C13.6,6.8,13.4,6.8,13.3,6.8L13.3,6.8z"/>
<path class="st0" d="M12,7.4c0-0.1-0.2-0.2-0.3-0.2c0,0,0,0,0,0l-0.2,0c-0.1,0-0.2,0.1-0.2,0.3c0,0.1,0.1,0.2,0.3,0.2c0,0,0,0,0.1,0
	l0.2,0C12,7.7,12,7.6,12,7.4C12,7.5,12,7.5,12,7.4z"/>
<path class="st0" d="M10.6,7.8c0,0.1,0.1,0.2,0.3,0.2h0l0.2,0c0.1,0,0.2-0.2,0.2-0.3c0-0.1-0.2-0.2-0.3-0.2l-0.2,0
	C10.6,7.5,10.5,7.6,10.6,7.8C10.6,7.8,10.6,7.8,10.6,7.8z"/>
<path class="st0" d="M8.1,8c0,0.1,0.1,0.2,0.2,0.2h0l0.2,0c0.1,0,0.2-0.1,0.2-0.3S8.6,7.7,8.5,7.7H8.3C8.2,7.7,8.1,7.9,8.1,8
	C8.1,8,8.1,8,8.1,8z"/>
<path class="st0" d="M9.3,7.7l-0.2,0C9,7.7,8.9,7.8,8.9,7.9c0,0.1,0.1,0.2,0.3,0.2h0l0.2,0c0.1,0,0.2-0.1,0.2-0.3
	C9.6,7.8,9.4,7.7,9.3,7.7L9.3,7.7z"/>
<path class="st0" d="M10.1,7.6l-0.2,0c-0.1,0-0.2,0.1-0.2,0.3C9.7,8,9.8,8.1,10,8.1h0l0.2,0c0.1,0,0.2-0.1,0.2-0.3
	C10.4,7.6,10.2,7.5,10.1,7.6L10.1,7.6z"/>
<path class="st0" d="M7.1,3.2L7.1,3.2c0.1,0,0.1,0,0.2,0c0.1,0,0.2-0.1,0.2-0.2c0,0,0,0,0,0c0-0.1-0.1-0.2-0.3-0.2H7.1
	C6.9,2.7,6.8,2.8,6.8,3c0,0,0,0,0,0C6.8,3.1,6.9,3.2,7.1,3.2C7.1,3.2,7.1,3.2,7.1,3.2z"/>
<path class="st0" d="M5.4,3.1l0.2,0h0c0.1,0,0.3-0.1,0.3-0.2c0-0.1-0.1-0.3-0.2-0.3l-0.2,0c-0.1,0-0.3,0.1-0.3,0.2
	C5.1,3,5.2,3.1,5.4,3.1L5.4,3.1z"/>
<path class="st0" d="M4.6,3l0.2,0h0C4.9,3.1,5,3,5,2.8c0-0.1-0.1-0.3-0.2-0.3l-0.2,0c-0.1,0-0.3,0.1-0.3,0.2C4.3,2.9,4.4,3,4.6,3
	L4.6,3z"/>
<path class="st0" d="M3.7,2.9l0.2,0h0c0.1,0,0.3-0.1,0.3-0.2c0-0.1-0.1-0.3-0.2-0.3l-0.2,0c-0.1,0-0.3,0.1-0.3,0.2S3.6,2.8,3.7,2.9
	L3.7,2.9z"/>
<path class="st0" d="M6.2,3.2h0.2h0c0.1,0,0.3-0.1,0.3-0.2c0-0.1-0.1-0.3-0.2-0.3H6.2C6.1,2.7,6,2.8,6,2.9C6,3.1,6.1,3.2,6.2,3.2
	L6.2,3.2z"/>
<path class="st0" d="M10.3,2.8C10.4,2.8,10.4,2.8,10.3,2.8l0.2-0.1c0.1,0,0.2-0.2,0.2-0.3c0-0.1-0.2-0.2-0.3-0.2l-0.2,0
	c-0.1,0-0.2,0.2-0.2,0.3C10.1,2.7,10.2,2.8,10.3,2.8L10.3,2.8z"/>
<path class="st0" d="M7.9,3.2L7.9,3.2l0.2,0c0.1,0,0.2-0.1,0.2-0.3c0-0.1-0.1-0.2-0.3-0.2l0,0l-0.2,0c-0.1,0-0.2,0.1-0.2,0.3
	C7.6,3.1,7.8,3.2,7.9,3.2L7.9,3.2z"/>
<path class="st0" d="M9.5,3C9.5,3,9.6,3,9.5,3l0.2,0c0.1,0,0.2-0.2,0.2-0.3c0-0.1-0.2-0.2-0.3-0.2l-0.2,0c-0.1,0-0.2,0.1-0.2,0.3
	C9.3,2.9,9.4,3,9.5,3L9.5,3z"/>
<path class="st0" d="M8.7,3.1L8.7,3.1l0.2,0c0.1,0,0.2-0.1,0.2-0.3c0-0.1-0.1-0.2-0.3-0.2l-0.2,0c-0.1,0-0.2,0.1-0.2,0.3
	C8.5,3,8.6,3.1,8.7,3.1L8.7,3.1L8.7,3.1z"/>
<path class="st0" d="M5.8,10.7c0-0.1-0.1-0.3-0.2-0.3c0,0,0,0,0,0l-0.2,0c-0.1,0-0.3,0.1-0.3,0.2c0,0.1,0.1,0.3,0.2,0.3l0,0l0.2,0h0
	C5.7,10.9,5.8,10.8,5.8,10.7z"/>
<path class="st0" d="M6.6,10.8c0-0.1-0.1-0.3-0.2-0.3l-0.2,0c-0.1,0-0.3,0.1-0.3,0.2C6,10.9,6.1,11,6.2,11l0.2,0h0
	C6.5,11,6.6,10.9,6.6,10.8z"/>
<path class="st0" d="M7.5,10.8c0-0.1-0.1-0.3-0.2-0.3H7.1c-0.1,0-0.3,0.1-0.3,0.2c0,0.1,0.1,0.3,0.2,0.3h0.2h0
	C7.3,11.1,7.4,11,7.5,10.8z"/>
<path class="st0" d="M9.1,10.8c0-0.1-0.1-0.2-0.3-0.2c0,0,0,0,0,0l-0.2,0c-0.1,0-0.2,0.1-0.2,0.3s0.1,0.2,0.3,0.2l0,0h0l0.2,0
	C9,11,9.1,10.9,9.1,10.8C9.1,10.8,9.1,10.8,9.1,10.8z"/>
<path class="st0" d="M8.3,10.9c0-0.1-0.1-0.2-0.2-0.2c0,0,0,0,0,0H7.9c-0.1,0-0.2,0.1-0.2,0.2c0,0.1,0.1,0.2,0.2,0.2h0l0.1,0
	C8.2,11.1,8.3,11,8.3,10.9z"/>
<path class="st0" d="M2.4,9.6L2.3,9.6C2.2,9.5,2,9.6,2,9.7c0,0.1,0,0.3,0.1,0.3l0.2,0.1c0.1,0.1,0.3,0,0.3-0.1
	C2.7,9.8,2.6,9.7,2.4,9.6C2.5,9.6,2.5,9.6,2.4,9.6L2.4,9.6z"/>
<path class="st0" d="M4.2,10.4c0-0.1,0-0.3-0.2-0.3c0,0,0,0,0,0l-0.2,0c-0.1,0-0.3,0.1-0.3,0.2c0,0.1,0,0.2,0.2,0.3l0.2,0
	C4,10.6,4.1,10.5,4.2,10.4C4.2,10.4,4.2,10.4,4.2,10.4L4.2,10.4z"/>
<path class="st0" d="M3.4,10.2c0-0.1,0-0.3-0.2-0.3l-0.2,0c-0.1,0-0.3,0-0.3,0.2c0,0.1,0,0.3,0.2,0.3l0.2,0
	C3.2,10.4,3.3,10.3,3.4,10.2L3.4,10.2z"/>
<path class="st0" d="M5,10.6c0-0.1-0.1-0.3-0.2-0.3c0,0,0,0,0,0l-0.2,0c-0.1,0-0.3,0.1-0.3,0.2c0,0.1,0.1,0.3,0.2,0.3l0.2,0h0
	C4.9,10.8,5,10.7,5,10.6z"/>
<path class="st0" d="M11.3,10.2l-0.2,0c-0.1,0-0.2,0.1-0.2,0.3c0,0.1,0.1,0.2,0.3,0.2c0,0,0,0,0.1,0l0.2,0c0.1,0,0.2-0.2,0.2-0.3
	C11.5,10.3,11.4,10.2,11.3,10.2C11.3,10.2,11.3,10.2,11.3,10.2L11.3,10.2z"/>
<path class="st0" d="M12,10l-0.2,0c-0.1,0-0.2,0.2-0.2,0.3c0,0.1,0.2,0.2,0.3,0.2c0,0,0,0,0,0l0.2,0c0.1,0,0.2-0.2,0.2-0.3
	C12.3,10.1,12.2,10,12,10C12.1,10,12.1,10,12,10L12,10z"/>
<path class="st0" d="M12.8,9.8l-0.2,0.1c-0.1,0-0.2,0.2-0.2,0.3c0,0.1,0.2,0.2,0.3,0.2l0.2-0.1c0.1,0,0.2-0.2,0.2-0.3
	S13,9.7,12.8,9.8L12.8,9.8z"/>
<path class="st0" d="M10.7,10.6c0-0.1-0.2-0.2-0.3-0.2c0,0,0,0,0,0l-0.2,0c-0.1,0-0.2,0.1-0.2,0.3c0,0.1,0.1,0.2,0.3,0.2h0l0.2,0
	C10.7,10.8,10.8,10.7,10.7,10.6C10.7,10.6,10.7,10.6,10.7,10.6z"/>
<path class="st0" d="M9.9,10.7c0-0.1-0.1-0.2-0.3-0.2c0,0,0,0,0,0l-0.2,0c-0.1,0-0.2,0.1-0.2,0.3c0,0.1,0.1,0.2,0.3,0.2h0l0.2,0
	C9.8,11,9.9,10.8,9.9,10.7C9.9,10.7,9.9,10.7,9.9,10.7z"/>
<path class="st0" d="M7.5,0C3.4,0,0,3.4,0,7.5S3.4,15,7.5,15S15,11.6,15,7.5S11.6,0,7.5,0z M13.6,9.5l-0.2,0.1
	c-0.1,0.1-0.2,0.2-0.1,0.3c0,0.1,0.1,0.1,0.2,0.1c-0.3,0.6-0.6,1.2-1,1.7l0,0l-0.1,0.1c-0.1,0-0.1,0.1-0.1,0.2L12,12.1
	C11.9,12,11.8,12,11.7,12l-0.1,0.1c-0.1,0-0.2,0.2-0.1,0.3c0,0,0,0,0,0c0,0.1,0.1,0.1,0.1,0.1c-2.5,2-6.2,1.9-8.5-0.4
	c0,0,0.1-0.1,0.1-0.1c0.1-0.1,0-0.3-0.1-0.3c0,0,0,0,0,0l-0.2-0.1c-0.1,0-0.2,0-0.2,0c-0.5-0.6-0.9-1.2-1.1-1.9l0,0
	c0.1,0.1,0.3,0,0.3-0.1c0.1-0.1,0-0.3-0.1-0.3L1.5,9.3c-0.1,0-0.2,0-0.2,0C1.1,8.7,1,8.1,1,7.5c0-0.1,0-0.1,0-0.2h0
	c0.1,0,0.3,0,0.3-0.2c0-0.1,0-0.3-0.2-0.3l-0.1,0C1.2,6.2,1.3,5.6,1.5,5c0.1,0,0.2-0.1,0.2-0.3c0,0,0-0.1,0-0.1
	c0.4-0.7,0.9-1.4,1.5-1.9c0.1,0,0.2-0.1,0.2-0.2c2.1-1.8,5.2-2,7.6-0.5c-0.1,0.1-0.1,0.3,0,0.4c0.1,0.1,0.2,0.1,0.3,0.1l0.2-0.1
	c0,0,0,0,0,0c1.3,1,2.2,2.5,2.5,4.2c-0.1,0.1-0.2,0.2-0.1,0.3C13.8,7,13.9,7,13.9,7c0,0.1,0,0.3,0,0.5C14,8.2,13.8,8.8,13.6,9.5
	C13.6,9.5,13.6,9.5,13.6,9.5z"/>
<path class="st0" d="M9.3,12.6l-0.2,0c-0.1,0-0.2,0.1-0.2,0.3c0,0.1,0.1,0.2,0.3,0.2h0l0.2,0c0.1,0,0.2-0.1,0.2-0.3
	C9.6,12.7,9.5,12.6,9.3,12.6L9.3,12.6z"/>
<path class="st0" d="M3.8,12l-0.2-0.1c-0.1,0-0.3,0-0.3,0.2c0,0.1,0,0.3,0.2,0.3l0.2,0.1c0.1,0,0.3,0,0.3-0.2
	C3.9,12.1,3.9,12,3.8,12z"/>
<path class="st0" d="M8.5,12.7c-0.1,0-0.1,0-0.2,0c-0.1,0-0.2,0.1-0.2,0.2c0,0,0,0,0,0c0,0.1,0.1,0.2,0.2,0.2l0,0c0.1,0,0.1,0,0.2,0
	c0.1,0,0.2-0.1,0.2-0.2C8.8,12.8,8.7,12.7,8.5,12.7z"/>
<path class="st0" d="M4.5,12.2l-0.2,0c-0.1,0-0.3,0-0.3,0.2c0,0.1,0,0.3,0.2,0.3c0,0,0,0,0,0l0.2,0c0.1,0,0.3,0,0.3-0.2
	C4.8,12.4,4.7,12.3,4.5,12.2C4.5,12.2,4.5,12.2,4.5,12.2L4.5,12.2z"/>
<path class="st0" d="M6.9,12.7l-0.2,0c-0.1,0-0.3,0.1-0.3,0.2c0,0.1,0.1,0.3,0.2,0.3l0.2,0h0c0.1,0,0.3-0.1,0.3-0.2
	C7.2,12.8,7.1,12.7,6.9,12.7L6.9,12.7L6.9,12.7z"/>
<path class="st0" d="M5.3,12.4l-0.2,0c-0.1,0-0.3,0-0.3,0.2c0,0.1,0,0.3,0.2,0.3c0,0,0,0,0,0l0.2,0c0.1,0,0.3-0.1,0.3-0.2
	C5.5,12.6,5.4,12.4,5.3,12.4L5.3,12.4z"/>
<path class="st0" d="M7.7,12.7c-0.1,0-0.1,0-0.2,0c-0.1,0-0.2,0.1-0.3,0.2c0,0,0,0,0,0c0,0.1,0.1,0.2,0.2,0.2c0,0,0,0,0,0
	c0.1,0,0.1,0,0.2,0l0,0c0.1,0,0.2-0.1,0.2-0.2c0,0,0,0,0,0C8,12.8,7.9,12.7,7.7,12.7z"/>
<path class="st0" d="M6.1,12.6l-0.2,0c-0.1,0-0.3,0.1-0.3,0.2c0,0.1,0.1,0.3,0.2,0.3l0.2,0h0c0.1,0,0.3-0.1,0.3-0.2
	S6.3,12.6,6.1,12.6L6.1,12.6z"/>
<path class="st0" d="M10.9,12.3l-0.2,0c-0.1,0-0.2,0.2-0.2,0.3c0,0.1,0.2,0.2,0.3,0.2c0,0,0,0,0,0l0.2,0c0.1,0,0.2-0.2,0.2-0.3
	C11.2,12.3,11,12.3,10.9,12.3L10.9,12.3z"/>
<path class="st0" d="M10.1,12.5l-0.2,0c-0.1,0-0.2,0.1-0.2,0.3c0,0.1,0.1,0.2,0.3,0.2h0l0.2,0c0.1,0,0.2-0.2,0.2-0.3
	C10.4,12.6,10.3,12.5,10.1,12.5z"/>
</svg>
