<?xml version="1.0" encoding="utf-8"?>
<!-- Generator: Adobe Illustrator 20.0.0, SVG Export Plug-In . SVG Version: 6.00 Build 0)  -->
<svg version="1.1" id="Capa_1" xmlns="http://www.w3.org/2000/svg" xmlns:xlink="http://www.w3.org/1999/xlink" x="0px" y="0px"
	 viewBox="0 0 7.1 12" style="enable-background:new 0 0 7.1 12;" xml:space="preserve">
<style type="text/css">
	.st0{fill:#FFFFFF;}
</style>
<g>
	<path class="st0" d="M7.1,0.3C7,0.1,6.8,0,6.5,0H3.8C3.5,0,3.1,0.2,3,0.5L0.1,6.6C0,6.8,0,7,0.1,7.1c0.1,0.2,0.3,0.3,0.5,0.3l2.2,0
		l-1.6,3.9c0,0.1-0.1,0.3,0,0.5C1.3,11.9,1.4,12,1.5,12h0c0.2,0,0.3-0.2,0.4-0.2l5-6.3c0.2-0.3,0.1-0.5,0.1-0.6
		c0-0.1-0.2-0.3-0.5-0.3H4.9L7,0.9C7.1,0.7,7.2,0.4,7.1,0.3z"/>
</g>
</svg>
