<?xml version="1.0" encoding="utf-8"?>
<!-- Generator: Adobe Illustrator 21.1.0, SVG Export Plug-In . SVG Version: 6.00 Build 0)  -->
<svg version="1.1" id="Capa_1" xmlns="http://www.w3.org/2000/svg" xmlns:xlink="http://www.w3.org/1999/xlink" x="0px" y="0px"
	 viewBox="0 0 391 391" style="enable-background:new 0 0 391 391;" xml:space="preserve">
<style type="text/css">
	.st0{fill:#030303;}
</style>
<g>
	<g>
		<path class="st0" d="M368.3,349.2H22.7C10.2,349.2,0,339,0,326.4V64.5C0,52,10.2,41.8,22.7,41.8h345.6c12.5,0,22.7,10.2,22.7,22.7
			v261.9C391,339,380.8,349.2,368.3,349.2z M30.5,337.4h329.9c10.4,0,18.8-8.4,18.8-18.8V72.3c0-10.4-8.4-18.8-18.8-18.8H30.5
			c-10.4,0-18.8,8.4-18.8,18.8v246.3C11.7,329,20.1,337.4,30.5,337.4z"/>
	</g>
	<g>
		<path class="st0" d="M116,285.7H58.8c-7.6,0-13.8-6.2-13.8-13.8v-57.2c0-7.6,6.2-13.8,13.8-13.8H116c7.6,0,13.8,6.2,13.8,13.8V272
			C129.8,279.6,123.6,285.7,116,285.7z M65.4,274h43.9c4.8,0,8.7-3.9,8.7-8.7v-43.9c0-4.8-3.9-8.7-8.7-8.7H65.4
			c-4.8,0-8.7,3.9-8.7,8.7v43.9C56.8,270.1,60.7,274,65.4,274z"/>
	</g>
	<g>
		<path class="st0" d="M91.3,177.7c-26.4,2.4-48.4-19.7-46-46c1.8-20.2,18.1-36.5,38.3-38.3c26.4-2.3,48.4,19.7,46,46
			C127.8,159.6,111.5,175.9,91.3,177.7z M90.7,105.1c-19.1-2-35.1,13.6-33.9,32.5c1,15.2,13.3,27.6,28.6,28.6
			c18.9,1.2,34.5-14.8,32.4-33.9C116.4,118,104.9,106.6,90.7,105.1z"/>
	</g>
	<g>
		<path class="st0" d="M209,93.2h128.8c3.2,0,5.9,2.6,5.9,5.9v0c0,3.2-2.6,5.9-5.9,5.9H209c-3.2,0-5.9-2.6-5.9-5.9v0
			C203.1,95.8,205.8,93.2,209,93.2z"/>
	</g>
	<g>
		<path class="st0" d="M209,151.8h128.8c3.2,0,5.9,2.6,5.9,5.9v0c0,3.2-2.6,5.9-5.9,5.9H209c-3.2,0-5.9-2.6-5.9-5.9v0
			C203.1,154.4,205.8,151.8,209,151.8z"/>
	</g>
	<g>
		<path class="st0" d="M209,210.3h128.8c3.2,0,5.9,2.6,5.9,5.9v0c0,3.2-2.6,5.9-5.9,5.9H209c-3.2,0-5.9-2.6-5.9-5.9v0
			C203.1,212.9,205.8,210.3,209,210.3z"/>
	</g>
	<g>
		<path class="st0" d="M209,268.9h128.8c3.2,0,5.9,2.6,5.9,5.9v0c0,3.2-2.6,5.9-5.9,5.9H209c-3.2,0-5.9-2.6-5.9-5.9v0
			C203.1,271.5,205.8,268.9,209,268.9z"/>
	</g>
</g>
</svg>
