<?xml version="1.0" encoding="utf-8"?>
<!-- Generator: Adobe Illustrator 20.0.0, SVG Export Plug-In . SVG Version: 6.00 Build 0)  -->
<svg version="1.1" id="Capa_1" xmlns="http://www.w3.org/2000/svg" xmlns:xlink="http://www.w3.org/1999/xlink" x="0px" y="0px"
	 viewBox="0 0 15 15.3" style="enable-background:new 0 0 15 15.3;" xml:space="preserve">
<style type="text/css">
	.st0{fill:#C9C9C9;}
</style>
<g>
	<g>
		<path class="st0" d="M14,1.2C13.3,0.5,12.2,0,11.2,0H7C5.9,0,4.9,0.5,4.2,1.2c-0.6,0.7-1,1.6-1,2.6H2.4C1.1,3.8,0,4.9,0,6.2v1.4
			C0,7.8,0.1,7.9,0.2,8L4,11.4c0,0,0,0,0.1,0c0,0,0,0,0.1,0c0.1,0,0.1,0,0.2,0v3.4c0,0.3,0.2,0.5,0.5,0.5h8.6c0.3,0,0.5-0.2,0.5-0.5
			v-3.4c0.2,0,0.5-0.2,0.5-0.4L15,4.2C15.1,3.1,14.7,2,14,1.2z M1,7.4V6.2c0-0.8,0.6-1.4,1.4-1.4h0.9l0.5,5.1L1,7.4z M6.7,14.4H5.3
			v-2.9h1.4V14.4z M10.5,14.4H7.7v-4.3c0-0.8,0.6-1.4,1.4-1.4s1.4,0.6,1.4,1.4V14.4z M12.9,14.4h-1.4v-2.9h1.4V14.4z M14,4.1
			l-0.6,6.4h0h-1.9v-0.5c0-1.3-1.1-2.4-2.4-2.4s-2.4,1.1-2.4,2.4v0.5H4.8L4.2,4.3c0,0,0,0,0,0c0,0,0,0,0,0l0-0.2
			C4.1,3.3,4.4,2.5,4.9,1.9C5.4,1.3,6.2,1,7,1h4.2c0.8,0,1.6,0.3,2.1,0.9C13.8,2.5,14.1,3.3,14,4.1z"/>
	</g>
</g>
<g>
	<g>
		<path class="st0" d="M9.6,10.5h-1c-0.3,0-0.5,0.2-0.5,0.5s0.2,0.5,0.5,0.5h1c0.3,0,0.5-0.2,0.5-0.5S9.8,10.5,9.6,10.5z"/>
	</g>
</g>
<g>
	<g>
		<path class="st0" d="M9.6,12.4h-1c-0.3,0-0.5,0.2-0.5,0.5s0.2,0.5,0.5,0.5h1c0.3,0,0.5-0.2,0.5-0.5S9.8,12.4,9.6,12.4z"/>
	</g>
</g>
</svg>
