<?xml version="1.0" encoding="utf-8"?>
<!-- Generator: Adobe Illustrator 20.0.0, SVG Export Plug-In . SVG Version: 6.00 Build 0)  -->
<svg version="1.1" id="Capa_1" xmlns="http://www.w3.org/2000/svg" xmlns:xlink="http://www.w3.org/1999/xlink" x="0px" y="0px"
	 viewBox="0 0 15 15" style="enable-background:new 0 0 15 15;" xml:space="preserve">
<style type="text/css">
	.st0{fill:#C9C9C9;}
</style>
<g>
	<g>
		<path class="st0" d="M7.5,0C3.4,0,0,3.4,0,7.5S3.4,15,7.5,15S15,11.6,15,7.5S11.6,0,7.5,0z M7.5,14.1c-3.6,0-6.6-2.9-6.6-6.6
			s2.9-6.6,6.6-6.6c2.2,0,4.2,1.1,5.4,2.8l-0.1,0.1C11.5,4.3,10.2,4.2,9,3.5L8.9,3.5h0C8.2,3,7.4,2.8,6.6,2.8C4,2.8,1.9,4.9,1.9,7.5
			s2.1,4.7,4.7,4.7c0.8,0,1.6-0.2,2.4-0.6L9,11.5c1.1-0.7,2.5-0.8,3.7-0.3l0.1,0.1C11.7,13,9.7,14.1,7.5,14.1z M13.1,10.4
			c-1.4-0.6-3.1-0.6-4.5,0.2l-0.1,0.1c-0.6,0.4-1.3,0.6-2,0.6c-2.1,0-3.8-1.7-3.8-3.8s1.7-3.8,3.8-3.8c0.7,0,1.4,0.2,2,0.6l0.1,0.1
			h0c1.4,0.8,3,0.9,4.5,0.2l0.2-0.1c0.5,0.9,0.7,1.9,0.7,3s-0.3,2.1-0.7,3L13.1,10.4z"/>
	</g>
</g>
</svg>
