<?xml version="1.0" encoding="utf-8"?>
<!-- Generator: Adobe Illustrator 20.0.0, SVG Export Plug-In . SVG Version: 6.00 Build 0)  -->
<svg version="1.1" id="Capa_1" xmlns="http://www.w3.org/2000/svg" xmlns:xlink="http://www.w3.org/1999/xlink" x="0px" y="0px"
	 viewBox="0 0 15 15" style="enable-background:new 0 0 15 15;" xml:space="preserve">
<style type="text/css">
	.st0{fill:#C9C9C9;}
</style>
<g>
	<g>
		<path class="st0" d="M12.8,2.2c-2.9-2.9-7.7-2.9-10.6,0c-2.9,2.9-2.9,7.7,0,10.6c2.9,2.9,7.7,2.9,10.6,0
			C15.7,9.9,15.7,5.1,12.8,2.2z M12.2,12.2c-2.6,2.6-6.8,2.6-9.4,0c-2.6-2.6-2.6-6.8,0-9.4c2.6-2.6,6.8-2.6,9.4,0
			C14.8,5.4,14.8,9.6,12.2,12.2z"/>
	</g>
</g>
<g>
	<g>
		<path class="st0" d="M11.6,4.7c-0.5-0.5-1.4-0.5-1.9,0c-0.5,0.5-0.5,1.3,0,1.9c0.2,0.2,0.4,0.2,0.6,0s0.2-0.4,0-0.6
			c-0.2-0.2-0.2-0.4,0-0.6c0.2-0.2,0.5-0.2,0.7,0c0.2,0.2,0.4,0.2,0.6,0C11.7,5.2,11.7,4.9,11.6,4.7z"/>
	</g>
</g>
<g>
	<g>
		<path class="st0" d="M8.4,4.1c-0.5-0.5-1.3-0.5-1.9,0c-0.5,0.5-0.5,1.3,0,1.9c0.2,0.2,0.4,0.2,0.6,0s0.2-0.4,0-0.6
			C7,5.2,7,4.9,7.2,4.7c0.2-0.2,0.4-0.2,0.6,0c0.2,0.2,0.4,0.2,0.6,0C8.6,4.5,8.6,4.3,8.4,4.1z"/>
	</g>
</g>
<g>
	<g>
		<path class="st0" d="M5.3,3.5C4.8,2.9,4,2.9,3.4,3.5C2.9,4,2.9,4.8,3.4,5.3c0.2,0.2,0.4,0.2,0.6,0c0.2-0.2,0.2-0.4,0-0.6
			c-0.2-0.2-0.2-0.5,0-0.6c0.2-0.2,0.4-0.2,0.7,0c0.2,0.2,0.4,0.2,0.6,0C5.5,3.9,5.5,3.6,5.3,3.5z"/>
	</g>
</g>
<g>
	<g>
		<path class="st0" d="M5.9,6.6c-0.5-0.5-1.3-0.5-1.9,0c-0.5,0.5-0.5,1.3,0,1.9c0.2,0.2,0.4,0.2,0.6,0c0.2-0.2,0.2-0.4,0-0.6
			c-0.2-0.2-0.2-0.4,0-0.6C4.9,7,5.2,7,5.3,7.2c0.2,0.2,0.4,0.2,0.6,0C6.1,7,6.1,6.7,5.9,6.6z"/>
	</g>
</g>
<g>
	<g>
		<path class="st0" d="M6.6,9.7c-0.5-0.5-1.4-0.5-1.9,0c-0.5,0.5-0.5,1.4,0,1.9c0.2,0.2,0.4,0.2,0.6,0s0.2-0.4,0-0.6
			c-0.2-0.2-0.2-0.4,0-0.6c0.2-0.2,0.5-0.2,0.6,0c0.2,0.2,0.4,0.2,0.6,0C6.7,10.2,6.7,9.9,6.6,9.7z"/>
	</g>
</g>
<g>
	<g>
		<path class="st0" d="M9.1,7.2c-0.5-0.5-1.4-0.5-1.9,0c-0.5,0.5-0.5,1.4,0,1.9c0.2,0.2,0.4,0.2,0.6,0s0.2-0.4,0-0.6
			C7.6,8.3,7.6,8,7.8,7.8c0.2-0.2,0.5-0.2,0.6,0C8.6,8,8.9,8,9.1,7.8C9.2,7.6,9.2,7.4,9.1,7.2z"/>
	</g>
</g>
</svg>
