<?xml version="1.0" encoding="utf-8"?>
<!-- Generator: Adobe Illustrator 20.0.0, SVG Export Plug-In . SVG Version: 6.00 Build 0)  -->
<svg version="1.1" id="Capa_1" xmlns="http://www.w3.org/2000/svg" xmlns:xlink="http://www.w3.org/1999/xlink" x="0px" y="0px"
	 viewBox="0 0 14.8 15" style="enable-background:new 0 0 14.8 15;" xml:space="preserve">
<style type="text/css">
	.st0{fill:#C9C9C9;}
</style>
<g>
	<g id="Layer_1_21_">
		<g>
			<path class="st0" d="M8.8,3.3c0.9,0.2,1.8-0.4,2-1.3c0.2-0.9-0.4-1.8-1.3-2c-0.9-0.2-1.8,0.4-2,1.3C7.3,2.3,7.9,3.2,8.8,3.3z"/>
			<path class="st0" d="M10.8,13.2c0.1-0.2,0.2-0.4,0.2-0.6l-0.3-3.1c0-0.2-0.1-0.3-0.2-0.5L10.4,9L9.8,8.3l0.7-3.2L14.2,5
				c0.3,0,0.6-0.3,0.6-0.6c0-0.4-0.3-0.7-0.6-0.7c0,0-4.1-0.2-4.3-0.2c-0.4,0-2.1,0-2.5,0.2L2.9,5.8C2.6,5.9,2.5,6.2,2.6,6.5
				C2.7,6.7,3,6.9,3.3,6.8l3.2-1.1C6.5,5.7,6,8,6,8.2L5.9,10l-1.5,2.3c-0.2,0.3-0.2,0.6,0,0.9C1.8,13.4,0,13.7,0,14.1
				C0,14.6,3.3,15,7.4,15s7.4-0.4,7.4-0.9C14.8,13.7,13.2,13.4,10.8,13.2z M5.7,13.2l1.8-2.3c0.1-0.1,0.1-0.2,0.1-0.4l0-0.1l0.2-1.2
				l1,0.9l0.5,2.7c0,0.1,0.1,0.2,0.1,0.3c-0.7,0-1.4,0-2.1,0C6.8,13.1,6.3,13.2,5.7,13.2z"/>
		</g>
	</g>
</g>
</svg>
