<?xml version="1.0" encoding="utf-8"?>
<!-- Generator: Adobe Illustrator 20.0.0, SVG Export Plug-In . SVG Version: 6.00 Build 0)  -->
<svg version="1.1" id="Capa_1" xmlns="http://www.w3.org/2000/svg" xmlns:xlink="http://www.w3.org/1999/xlink" x="0px" y="0px"
	 viewBox="0 0 25.4 25.4" style="enable-background:new 0 0 25.4 25.4;" xml:space="preserve">
<style type="text/css">
	.st0{fill:#FFFFFF;}
</style>
<g>
	<g id="c13_monument">
		<path id="_x3C_Group_x3E__4_" class="st0" d="M17.2,20V9.1h-3.6V20H17.2z M22.7,20V9.1h-3.6V20H22.7z M24.5,6.9L12.7,0L0.9,6.9
			c0,0-0.8,0.7,0,1.2h23.6C24.5,8.2,25.2,7.6,24.5,6.9z M11.8,20V9.1H8.2V20H11.8z M6.4,20V9.1H2.7V20H6.4z M23.7,21.2L2,21.3
			l-2,2.6v1.5h25.4v-1.5L23.7,21.2z"/>
	</g>
	<g id="Capa_1_134_">
	</g>
</g>
</svg>
