<?xml version="1.0" encoding="utf-8"?>
<!-- Generator: Adobe Illustrator 20.0.0, SVG Export Plug-In . SVG Version: 6.00 Build 0)  -->
<svg version="1.1" id="Capa_1" xmlns="http://www.w3.org/2000/svg" xmlns:xlink="http://www.w3.org/1999/xlink" x="0px" y="0px"
	 viewBox="0 0 15 15" style="enable-background:new 0 0 15 15;" xml:space="preserve">
<style type="text/css">
	.st0{fill:#C9C9C9;}
</style>
<polygon class="st0" points="0.3,8.8 0.8,9.3 2.2,7.8 3,7.8 1.6,9.3 2,9.8 4,7.8 6.7,7.8 4.1,10.4 1.8,10.4 1.8,11.1 3.4,11.1 
	2,12.5 2.5,13 3.9,11.6 3.9,13.2 4.6,13.2 4.6,10.9 7.2,8.3 7.2,11 5.2,13 5.7,13.4 7.2,12 7.2,12.8 5.7,14.2 6.2,14.7 7.2,13.7 
	7.2,15 7.8,15 7.8,13.7 8.8,14.7 9.3,14.2 7.8,12.8 7.8,12 9.3,13.4 9.8,13 7.8,11 7.8,8.3 10.4,10.9 10.4,13.2 11.1,13.2 
	11.1,11.6 12.5,13 13,12.5 11.6,11.1 13.2,11.1 13.2,10.4 10.9,10.4 8.3,7.8 11,7.8 13,9.8 13.4,9.3 12,7.8 12.8,7.8 14.2,9.3 
	14.7,8.8 13.7,7.8 15,7.8 15,7.2 13.7,7.2 14.7,6.2 14.2,5.7 12.8,7.2 12,7.2 13.4,5.7 13,5.2 11,7.2 8.3,7.2 10.9,4.6 13.2,4.6 
	13.2,3.9 11.6,3.9 12.7,2.8 12.2,2.3 11.1,3.4 11.1,1.8 10.4,1.8 10.4,4.1 7.8,6.7 7.8,4 9.8,2 9.3,1.6 7.8,3 7.8,2.2 9.3,0.8 
	8.8,0.3 7.8,1.3 7.8,0 7.2,0 7.2,1.3 6.2,0.3 5.7,0.8 7.2,2.2 7.2,3 5.7,1.6 5.2,2 7.2,4 7.2,6.7 4.6,4.1 4.6,1.8 3.9,1.8 3.9,3.4 
	2.8,2.3 2.3,2.8 3.4,3.9 1.8,3.9 1.8,4.6 4.1,4.6 6.7,7.2 4,7.2 2,5.2 1.6,5.7 3,7.2 2.2,7.2 0.8,5.7 0.3,6.2 1.3,7.2 0,7.2 0,7.8 
	1.3,7.8 "/>
</svg>
