<?xml version="1.0" encoding="utf-8"?>
<!-- Generator: Adobe Illustrator 20.0.0, SVG Export Plug-In . SVG Version: 6.00 Build 0)  -->
<svg version="1.1" id="Capa_1" xmlns="http://www.w3.org/2000/svg" xmlns:xlink="http://www.w3.org/1999/xlink" x="0px" y="0px"
	 viewBox="0 0 16.1 16" style="enable-background:new 0 0 16.1 16;" xml:space="preserve">
<style type="text/css">
	.st0{fill:#FFFFFF;}
</style>
<g>
	<path class="st0" d="M8.4,1.7v3.2L11,6.8l2.6-1.5v-3c-0.7-0.7-1.5-1.3-2.5-1.7L8.4,1.7z"/>
	<polygon class="st0" points="8,5.6 5.5,7.5 6.4,10.5 9.6,10.5 10.5,7.5 	"/>
	<path class="st0" d="M10.1,15.7l1.5-2.4l-1.9-2H6.3l-1.9,2l1.5,2.4C7.3,16.1,8.7,16.1,10.1,15.7z"/>
	<path class="st0" d="M6,0.2L8,1l2-0.7C9.3,0.1,8.7,0,8,0S6.7,0.1,6,0.2z"/>
	<path class="st0" d="M14,6.1l-2.6,1.5l-1,3.2l1.9,2l2.9-1.1c0.1-0.2,0.2-0.4,0.3-0.6c0.4-0.9,0.6-1.8,0.6-2.7L14,6.1z"/>
	<path class="st0" d="M5.6,10.8l-1-3.2L2,6.1L0,8.5c0.1,0.9,0.2,1.7,0.6,2.5c0.1,0.2,0.2,0.5,0.3,0.7l2.9,1.1L5.6,10.8z"/>
	<path class="st0" d="M14.4,12.9l-1.9,0.7l-1,1.6C12.6,14.7,13.6,13.9,14.4,12.9z"/>
	<path class="st0" d="M14.5,3.3v2.1L16,7.1c-0.1-0.7-0.3-1.4-0.5-2.1C15.2,4.4,14.9,3.9,14.5,3.3z"/>
	<path class="st0" d="M4.6,15.3l-1-1.6L1.7,13C2.4,13.9,3.4,14.7,4.6,15.3z"/>
	<path class="st0" d="M4.9,6.8l2.6-1.9V1.7l-2.7-1C3.9,1.1,3,1.6,2.3,2.3v3L4.9,6.8z"/>
	<path class="st0" d="M0,7.1l1.5-1.7V3.3c-0.3,0.5-0.6,1-0.9,1.5C0.3,5.6,0.1,6.4,0,7.1z"/>
</g>
</svg>
