<?xml version="1.0" encoding="utf-8"?>
<!-- Generator: Adobe Illustrator 21.1.0, SVG Export Plug-In . SVG Version: 6.00 Build 0)  -->
<svg version="1.1" id="Layer_1" xmlns="http://www.w3.org/2000/svg" xmlns:xlink="http://www.w3.org/1999/xlink" x="0px" y="0px"
	 viewBox="0 0 512 512" style="enable-background:new 0 0 512 512;" xml:space="preserve">
<style type="text/css">
	.st0{fill:#FFFFFF;}
</style>
<g>
	<g>
		<rect x="83.3" y="131.1" class="st0" width="237.2" height="20.8"/>
		<rect x="83.3" y="245.6" class="st0" width="214.3" height="20.8"/>
		<rect x="83.3" y="360" class="st0" width="159.2" height="20.8"/>
		<path class="st0" d="M494.2,74.9c0-35-27.5-62.9-62.4-63.4H63.6c-25.2,0-45.8,20.6-45.8,45.8v413.3c0,16.5,13.3,29.8,29.8,29.8
			h310.7c16.5,0,29.8-13.3,29.8-29.8V230.9H478c8.9,0,16.2-7.2,16.2-16.2V74.9z M346.6,479.7H58.2c-11.4,0-20.7-9.3-20.7-20.7V57.3
			c0-13.5,11.4-25,26-25h320c-10.1,11.2-16.2,26.1-16.2,42.7v384C367.3,470.4,358,479.7,346.6,479.7z M468,210.2h-79.8l-1-135.2
			c0-20.7,14.8-38.3,34.3-42.7h10.4v-1c23.5,0.6,42.7,20.1,42.7,43.7l-0.1,128.7C474.5,207.2,471.6,210.2,468,210.2z"/>
	</g>
</g>
</svg>
