<?xml version="1.0" encoding="utf-8"?>
<!-- Generator: Adobe Illustrator 20.0.0, SVG Export Plug-In . SVG Version: 6.00 Build 0)  -->
<svg version="1.1" id="Capa_1" xmlns="http://www.w3.org/2000/svg" xmlns:xlink="http://www.w3.org/1999/xlink" x="0px" y="0px"
	 viewBox="0 0 14.5 15" style="enable-background:new 0 0 14.5 15;" xml:space="preserve">
<style type="text/css">
	.st0{fill:#C9C9C9;}
</style>
<g>
	<path class="st0" d="M11.8,10.6c-0.2-0.2-1.3-2-2.3-3c-0.8-0.8-2-0.8-2.2-0.8c0,0,0,0,0,0H7.1c-0.1,0-1.3,0-2.1,0.8
		c-1.1,0.9-2.2,2.9-2.3,3c-0.6,1-1,1.6-1,2.3C1.6,14.2,2.6,15,4,15h6.5c1.4,0,2.4-0.8,2.4-2.1C12.9,12.2,12.5,11.6,11.8,10.6
		C11.9,10.6,11.9,10.6,11.8,10.6z M10.5,14H4c-0.5,0-1.4-0.1-1.4-1.1c0-0.4,0.3-0.9,0.8-1.8c0,0,0,0,0,0c0,0,1.2-1.9,2.1-2.8
		c0.6-0.5,1.5-0.5,1.5-0.5h0.3c0,0,0,0,0,0c0.2,0,1,0.1,1.5,0.5c0.9,0.9,2.1,2.8,2.1,2.8c0,0,0,0,0,0c0.6,1,0.8,1.4,0.8,1.8
		C11.9,13.8,11.1,14,10.5,14z"/>
	<path class="st0" d="M4.9,5.6c1.1,0,2-1.2,2-2.8C6.9,1.2,6,0,4.9,0c-1.1,0-2,1.2-2,2.8C2.9,4.4,3.8,5.6,4.9,5.6z M4.9,1
		c0.5,0,1,0.8,1,1.8c0,1.1-0.5,1.8-1,1.8s-1-0.8-1-1.8C3.9,1.7,4.4,1,4.9,1z"/>
	<path class="st0" d="M2.3,9c0.2,0,0.4,0,0.6-0.1C3.7,8.5,3.9,7.2,3.4,6C3,5.1,2.2,4.5,1.4,4.5c-0.2,0-0.4,0-0.6,0.1
		C0,5-0.3,6.2,0.3,7.4C0.7,8.4,1.5,9,2.3,9L2.3,9z M1.2,7C0.9,6.3,1,5.6,1.3,5.5c0,0,0.1,0,0.1,0c0.3,0,0.8,0.3,1.1,1
		C2.8,7.1,2.7,7.8,2.4,8c0,0-0.1,0-0.1,0C2,8,1.5,7.7,1.2,7z"/>
	<path class="st0" d="M9.6,5.6c1.1,0,2-1.2,2-2.8c0-1.6-0.9-2.8-2-2.8c-1.1,0-2,1.2-2,2.8C7.6,4.4,8.5,5.6,9.6,5.6z M9.6,1
		c0.5,0,1,0.8,1,1.8c0,1.1-0.5,1.8-1,1.8c-0.5,0-1-0.8-1-1.8C8.6,1.7,9.2,1,9.6,1z"/>
	<path class="st0" d="M13.7,4.6c-0.2-0.1-0.4-0.1-0.6-0.1c-0.8,0-1.6,0.6-2,1.6c-0.6,1.2-0.3,2.5,0.5,2.9C11.8,9,12,9,12.2,9
		c0.8,0,1.6-0.6,2-1.6C14.8,6.2,14.5,5,13.7,4.6z M13.3,7c-0.3,0.6-0.8,1-1.1,1c-0.1,0-0.1,0-0.1,0c-0.3-0.1-0.4-0.8-0.1-1.6
		c0.3-0.6,0.8-1,1.1-1c0.1,0,0.1,0,0.1,0C13.6,5.6,13.6,6.3,13.3,7z"/>
</g>
</svg>
