<?xml version="1.0" encoding="utf-8"?>
<!-- Generator: Adobe Illustrator 20.0.0, SVG Export Plug-In . SVG Version: 6.00 Build 0)  -->
<svg version="1.1" id="Capa_1" xmlns="http://www.w3.org/2000/svg" xmlns:xlink="http://www.w3.org/1999/xlink" x="0px" y="0px"
	 viewBox="0 0 15 15" style="enable-background:new 0 0 15 15;" xml:space="preserve">
<style type="text/css">
	.st0{fill:#C9C9C9;}
</style>
<g>
	<g>
		<path class="st0" d="M12.8,2.2C11.4,0.8,9.5,0,7.5,0S3.6,0.8,2.2,2.2S0,5.5,0,7.5s0.8,3.9,2.2,5.3S5.5,15,7.5,15s3.9-0.8,5.3-2.2
			S15,9.5,15,7.5S14.2,3.6,12.8,2.2z M14,7c-1.3-0.3-2.5-0.9-3.5-1.9l1.9-1.9C13.4,4.3,13.9,5.6,14,7z M11.8,2.5L9.8,4.5
			C8.9,3.5,8.3,2.3,8,1C9.4,1.1,10.7,1.6,11.8,2.5z M7,1c0.3,1.6,1.1,3,2.2,4.2L7.5,6.8L3.2,2.5C4.3,1.6,5.6,1.1,7,1z M2.5,3.2
			l4.3,4.3L5.2,9.2C4,8.1,2.5,7.4,1,7C1.1,5.6,1.6,4.3,2.5,3.2z M1,8c1.3,0.3,2.5,0.9,3.5,1.9l-1.9,1.9C1.6,10.7,1.1,9.4,1,8z
			 M3.2,12.5l1.9-1.9c0.9,1,1.5,2.2,1.9,3.5C5.6,13.9,4.3,13.4,3.2,12.5z M8,14c-0.3-1.6-1.1-3-2.2-4.2l1.7-1.7l4.3,4.3
			C10.7,13.4,9.4,13.9,8,14z M12.5,11.8L8.2,7.5l1.7-1.7C11,6.9,12.5,7.6,14,8C13.9,9.4,13.4,10.7,12.5,11.8z"/>
	</g>
</g>
</svg>
