<?xml version="1.0" encoding="utf-8"?>
<!-- Generator: Adobe Illustrator 20.0.0, SVG Export Plug-In . SVG Version: 6.00 Build 0)  -->
<svg version="1.1" id="Layer_1" xmlns="http://www.w3.org/2000/svg" xmlns:xlink="http://www.w3.org/1999/xlink" x="0px" y="0px"
	 viewBox="0 0 15 14.5" style="enable-background:new 0 0 15 14.5;" xml:space="preserve">
<style type="text/css">
	.st0{fill:#C9C9C9;}
</style>
<g>
	<g>
		<path class="st0" d="M12.7,4.7H9.8V2.6c0-1-0.3-1.8-0.9-2.2C8-0.3,6.7,0.1,6.6,0.1L6.2,0.3v3c0,0.7-0.4,1.3-1.2,1.9
			C4.8,5.3,4.7,5.6,4.9,5.9C5.1,6.1,5.4,6.2,5.7,6c1.1-0.8,1.6-1.7,1.6-2.8V1.1c0.3,0,0.6,0,0.9,0.2C8.6,1.5,8.7,2,8.7,2.6v3.2h4
			c0.6,0,1.2,0.5,1.2,1.1l-0.8,5.2l0,0c0,0.3-0.1,1.2-1.5,1.2H5.3c-0.6,0-1.1-0.5-1.1-1.1V7.1c0-0.9-0.8-1.7-1.7-1.7H1.7
			C0.8,5.4,0,6.1,0,7.1v5.3c0,0.9,0.8,1.7,1.7,1.7c0.3,0,0.6-0.3,0.6-0.6S2,13,1.7,13c-0.3,0-0.6-0.3-0.6-0.6V7.1
			c0-0.3,0.3-0.6,0.6-0.6h0.8c0.3,0,0.6,0.3,0.6,0.6v5.3c0,0,0,0.1,0,0.1c0.1,1.1,1.1,2,2.2,2h6.2c0.6,0,1.2-0.2,1.6-0.4
			c0.6-0.4,0.9-1,1-1.7L15,7.1C15,7,15,7,15,7C15,5.7,14,4.7,12.7,4.7z"/>
	</g>
</g>
</svg>
