<?xml version="1.0" encoding="utf-8"?>
<!-- Generator: Adobe Illustrator 21.0.0, SVG Export Plug-In . SVG Version: 6.00 Build 0)  -->
<svg version="1.1" id="Layer_1" xmlns="http://www.w3.org/2000/svg" xmlns:xlink="http://www.w3.org/1999/xlink" x="0px" y="0px"
	 viewBox="0 0 512 512" style="enable-background:new 0 0 512 512;" xml:space="preserve">
<style type="text/css">
	.st0{fill:#038852;}
	.st1{fill:#FFFFFF;}
</style>
<path class="st0" d="M170.7,423.7H8.8c-4.9,0-8.8-4-8.8-8.8V97.1c0-4.9,4-8.8,8.8-8.8h161.8V423.7z"/>
<rect x="170.7" y="88.3" class="st1" width="170.7" height="335.5"/>
<path class="st0" d="M503.2,423.7H341.3V88.3h161.8c4.9,0,8.8,4,8.8,8.8v317.8C512,419.8,508,423.7,503.2,423.7z"/>
</svg>
